<?xml version="1.0" encoding="UTF-8"?>
<svg xmlns="http://www.w3.org/2000/svg" width="101" height="20">
    <linearGradient id="b" x2="0" y2="100%">
        <stop offset="0" stop-color="#bbb" stop-opacity=".1"/>
        <stop offset="1" stop-opacity=".1"/>
    </linearGradient>
    <mask id="anybadge_1">
        <rect width="101" height="20" rx="3" fill="#fff"/>
    </mask>
    <g mask="url(#anybadge_1)">
        <path fill="#555" d="M0 0h56v20H0z"/>
        <path fill="#007ec6" d="M56 0h45v20H56z"/>
        <path fill="url(#b)" d="M0 0h101v20H0z"/>
    </g>
    <g fill="#fff" text-anchor="middle" font-family="DejaVu Sans,Verdana,Geneva,sans-serif" font-size="11">
        <text x="29.0" y="15" fill="#010101" fill-opacity=".3">License</text>
        <text x="28.0" y="14">License</text>
    </g>
    <g fill="#fff" text-anchor="middle" font-family="DejaVu Sans,Verdana,Geneva,sans-serif" font-size="11">
        <text x="79.5" y="15" fill="#010101" fill-opacity=".3">GPL 3</text>
        <text x="78.5" y="14">GPL 3</text>
    </g>
</svg>